{
   "version" : 3,
   "configurePresets": [
      {
         "name" : "default",
         "displayName" : "Default CMake Configuration",
         "warnings": {
            "deprecated": true
         },
         "cacheVariables": {
            "CMAKE_BUILD_TYPE" : "RelWithDebInfo"
         },
         "binaryDir" : "${sourceDir}/build"
      }
   ]
}
